…
# Join the datasets by country using left_merge()
CO2_by_country <- left_join(pop_data1, CO2_data, by = c('Country Name'= 'country', 'year' = 'year', 'Country Code' = 'iso_code'), copy = T) 

# Select necessary variables and save as a new dataset
CO2_by_country_clean <- CO2_by_country %>% select('Country Name', 'year', 'population.x', 'co2', 'methane', 'nitrous_oxide') %>% rename(population = "population.x") 

# I wanted to observe the 3 most populous countries, so I filtered them by the most recent population data
# Filter by the most recent year and arrange by descending population to find the top 3 most populous countries to observe
CO2_by_country_clean %>% filter(year == '2019') %>% arrange(desc(population))
```

    ## # A tibble: 264 x 6
    ##    `Country Name`              year population   co2 methane nitrous_oxide
    ##    <chr>                      <dbl>      <dbl> <dbl>   <dbl>         <dbl>
    ##  1 World                       2019 7673533974    NA      NA            NA
    ##  2 IDA & IBRD total            2019 6486934853    NA      NA            NA
    ##  3 Low & middle income         2019 6437681136    NA      NA            NA
    ##  4 Middle income               2019 5769226171    NA      NA            NA
    ##  5 IBRD only                   2019 4816235953    NA      NA            NA
    ##  6 Early-demographic dividend  2019 3290290613    NA      NA            NA
    ##  7 Lower middle income         2019 2913363391    NA      NA            NA
    ##  8 Upper middle income         2019 2855862780    NA      NA            NA
    ##  9 East Asia & Pacific         2019 2340628292    NA      NA            NA
    ## 10 Late-demographic dividend   2019 2298470832    NA      NA            NA
    ## # … with 254 more rows
…
