…
# Tidy Data and Merge

**The population dataset and greenhouse gas dataset were merged using
left\_join by their similar variables of country name, year, and country
code. The populations were not merged because the population variabale
in the greenhouse gas data was not exact, so it was removed from the
merged dataset. The variables Country Name, year, population, CO2,
methane, and nitrous gas were selected to observe. The most populous
country, China was selected to observe.**

    ## # A tibble: 264 x 7
    ##    `Country Name`              year population   co2 methane nitrous_oxide Level
    ##    <chr>                      <dbl>      <dbl> <dbl>   <dbl>         <dbl> <chr>
    ##  1 World                       2019 7673533974    NA      NA            NA <NA> 
    ##  2 IDA & IBRD total            2019 6486934853    NA      NA            NA <NA> 
    ##  3 Low & middle income         2019 6437681136    NA      NA            NA <NA> 
    ##  4 Middle income               2019 5769226171    NA      NA            NA <NA> 
    ##  5 IBRD only                   2019 4816235953    NA      NA            NA <NA> 
    ##  6 Early-demographic dividend  2019 3290290613    NA      NA            NA <NA> 
    ##  7 Lower middle income         2019 2913363391    NA      NA            NA <NA> 
    ##  8 Upper middle income         2019 2855862780    NA      NA            NA <NA> 
    ##  9 East Asia & Pacific         2019 2340628292    NA      NA            NA <NA> 
    ## 10 Late-demographic dividend   2019 2298470832    NA      NA            NA <NA> 
    ## # … with 254 more rows
…
